entered_tag,remapping
Tinman,Comrade
FileSmile,Silas
"""FileSmile""",Silas
"""Silas""",Silas
Filesmile,Silas
2bucksneakers,10QuidShoes
10Quidshoes,10QuidShoes
10quidshoes,10QuidShoes
11quidsh0es,10QuidShoes
23 (£2),23
23 (2),23
23 (secondaries),23
23(£2),23
2K12,2k12
Ac,AC
AC (£2),AC
Ant w/ needles,Ant
Blue (£1),Blue
Blue (£2),Blue
CallumRGH (Kid+),CallumRGH
Danubila,Danubi
Dazy (£2),Dazy
Dazy (Hero of Time?),Dazy
Dazy (naughty list),Dazy
Dazy n e s s,Dazy
Dazy(£2),Dazy
deMon,DeMon
DOCTOR Tation,The Tation
Dr Tation,The Tation
Freddo Classic (Midori),Midori
Funky Stegosaurus (Midori),Midori
GBK | Midori,Midori
GOON,Goon
Goon (£2),Goon
Goose (£2),Goose
Goose (2),Goose
Hooray4Jay,HoorayForJay
Hoorayforjay,HoorayForJay
Hylian likely,Hylian Likely
Hylian Reliable,Hylian Likely
Jane nair,Jane Nair
Jomo,JoMo
JoMo (Hero of Time?),JoMo
Kidder £2,Kidder
Kidder's garbage fox,Kidder
Kidder’s Garbage Fox,Kidder
Leng,Lengman
Lengman (£1),Lengman
Lengman (kirby),Lengman
Leeum (£2),Leeum
Lylatdile,Lylodile
Lyle,Lylodile
lum,Lum
Manyula & associates,Manyula
Manyula & Friends,Manyula
Marthmetician,Marthematician
Meltz the 18 year old,Max
Meltz,Max
Max (Fox),Max
Midori (£2),Midori
Midori (balloon),Midori
Midori (random?),Midori
Moogled jr (AKA the artist formerly known as marthby),Moby
Moogled jr (no friends),Moby
Moogled jr & pals,Moby
Moogled jr etc,Moby
Mordo (£2),Mordo
Mr Een and Watch AND FRIENDS,Een
Mr. Clean,Max
nitrix,Nitrix
NoPressure69,NoPressure
NoWeed | Blue,Blue
Obi Wan Midori,Midori
PA NK,PA-NK
Pank,PA-NK
Professor pro,Professor Pro
Qwertyfinger,QwertyFinger
Rey (£2),Rey
Rurouni Midori,Midori
Silas(£2),Silas
Skips (£2),Skips
Sl0m,Slom
sl0m,Slom
Slom (£2),Slom
SleepyC (Midori),Midori
Sneezy (£2),Sneezy
Tanki (£2),Tanki
Tanki (invitation pending),Tanki
The Lengman,Lengman
The tation,The Tation
The Tation (Prince of the gerudo),The Tation
"The Tation, Prince of the Gerudo",The Tation
Violatic,Vio
Weeb | NoPressure,NoPressure
X1 (and nana?),X1
Moxy,Moby
Moxy (&friends),Moby
"Moxy, Moogled jr, etc",Moby
El Cumo,Lengman
Phoenix | Okameed,Okameed
Wocka falco flame,Silas
BranSecondaries,Branspeed
BEBE NoPressure,NoPressure
